<svg width="481" height="481" viewBox="0 0 481 481" fill="none" xmlns="http://www.w3.org/2000/svg">
<path d="M240.657 320.451C284.715 320.451 320.43 284.733 320.43 240.673C320.43 196.613 284.715 160.895 240.657 160.895C196.6 160.895 160.884 196.613 160.884 240.673C160.884 284.733 196.6 320.451 240.657 320.451Z" stroke="#132B53" stroke-miterlimit="10"/>
<path d="M240.657 338.217C294.526 338.217 338.195 294.545 338.195 240.673C338.195 186.801 294.526 143.129 240.657 143.129C186.789 143.129 143.12 186.801 143.12 240.673C143.12 294.545 186.789 338.217 240.657 338.217Z" stroke="#132B53" stroke-miterlimit="10"/>
<path d="M240.657 355.983C304.337 355.983 355.959 304.357 355.959 240.673C355.959 176.989 304.337 125.363 240.657 125.363C176.978 125.363 125.355 176.989 125.355 240.673C125.355 304.357 176.978 355.983 240.657 355.983Z" stroke="#132B53" stroke-miterlimit="10"/>
<path d="M240.657 373.748C314.148 373.748 373.724 314.168 373.724 240.673C373.724 167.177 314.148 107.597 240.657 107.597C167.166 107.597 107.59 167.177 107.59 240.673C107.59 314.168 167.166 373.748 240.657 373.748Z" stroke="#132B53" stroke-miterlimit="10"/>
<path d="M240.657 391.514C323.959 391.514 391.489 323.98 391.489 240.673C391.489 157.366 323.959 89.8318 240.657 89.8318C157.355 89.8318 89.8259 157.366 89.8259 240.673C89.8259 323.98 157.355 391.514 240.657 391.514Z" stroke="#132B53" stroke-miterlimit="10"/>
<path d="M240.657 409.283C333.772 409.283 409.256 333.794 409.256 240.673C409.256 147.552 333.772 72.0627 240.657 72.0627C147.543 72.0627 72.0582 147.552 72.0582 240.673C72.0582 333.794 147.543 409.283 240.657 409.283Z" stroke="#132B53" stroke-miterlimit="10"/>
<path d="M240.657 427.049C343.583 427.049 427.021 343.605 427.021 240.673C427.021 137.74 343.583 54.2971 240.657 54.2971C137.731 54.2971 54.2936 137.74 54.2936 240.673C54.2936 343.605 137.731 427.049 240.657 427.049Z" stroke="#132B53" stroke-miterlimit="10"/>
<path d="M240.657 444.815C353.394 444.815 444.786 353.417 444.786 240.673C444.786 127.929 353.394 36.5315 240.657 36.5315C127.92 36.5315 36.5291 127.929 36.5291 240.673C36.5291 353.417 127.92 444.815 240.657 444.815Z" stroke="#132B53" stroke-miterlimit="10"/>
<path d="M240.657 462.58C363.205 462.58 462.55 363.229 462.55 240.673C462.55 118.117 363.205 18.7656 240.657 18.7656C118.109 18.7656 18.7645 118.117 18.7645 240.673C18.7645 363.229 118.109 462.58 240.657 462.58Z" stroke="#132B53" stroke-miterlimit="10"/>
<path d="M240.657 480.346C373.016 480.346 480.315 373.041 480.315 240.673C480.315 108.305 373.016 1 240.657 1C108.298 1 1 108.305 1 240.673C1 373.041 108.298 480.346 240.657 480.346Z" stroke="#132B53" stroke-miterlimit="10"/>
</svg>
