<svg width="449" height="449" viewBox="0 0 449 449" fill="none" xmlns="http://www.w3.org/2000/svg">
<path d="M224.67 447.94C348.365 447.94 448.64 347.665 448.64 223.97C448.64 100.275 348.365 0 224.67 0C100.975 0 0.700012 100.275 0.700012 223.97C0.700012 347.665 100.975 447.94 224.67 447.94Z" fill="#AFD1E9"/>
<mask id="mask0" mask-type="alpha" maskUnits="userSpaceOnUse" x="0" y="0" width="448" height="449">
<path d="M223.97 448.37C347.665 448.37 447.94 348.095 447.94 224.4C447.94 100.705 347.665 0.429932 223.97 0.429932C100.275 0.429932 0 100.705 0 224.4C0 348.095 100.275 448.37 223.97 448.37Z" fill="#AFD1E9"/>
</mask>
<g mask="url(#mask0)">
<path d="M345.653 368.49C502.332 196.665 540.937 -23.241 431.881 -122.683C322.825 -222.125 107.405 -163.447 -49.2732 8.37812C-205.951 180.204 -244.557 400.109 -135.501 499.552C-26.4452 598.994 188.975 540.316 345.653 368.49Z" stroke="#667999" stroke-miterlimit="10"/>
<path d="M313.818 343.285C458.47 188.219 494.788 -12.9971 394.936 -106.143C295.084 -199.289 96.8742 -149.093 -47.7779 5.97343C-192.43 161.04 -228.748 362.255 -128.896 455.401C-29.0442 548.547 169.165 498.351 313.818 343.285Z" stroke="#667999" stroke-miterlimit="10"/>
<path d="M282.061 318.168C414.691 179.765 448.683 -2.8923 357.983 -89.8095C267.283 -176.727 86.2382 -134.99 -46.3921 3.41249C-179.023 141.815 -213.014 324.472 -122.314 411.39C-31.6143 498.307 149.431 456.57 282.061 318.168Z" stroke="#667999" stroke-miterlimit="10"/>
<path d="M250.414 293.203C371.041 171.349 402.673 7.07647 321.065 -73.7093C239.457 -154.495 75.5135 -121.202 -45.1134 0.651779C-165.74 122.506 -197.372 286.778 -115.764 367.564C-34.1562 448.35 129.787 415.057 250.414 293.203Z" stroke="#667999" stroke-miterlimit="10"/>
<path d="M218.894 268.553C327.581 163.118 356.855 16.996 284.279 -57.8183C211.703 -132.633 64.7602 -107.809 -43.9272 -2.37303C-152.615 103.063 -181.889 249.184 -109.313 323.999C-36.7365 398.813 110.207 373.989 218.894 268.553Z" stroke="#667999" stroke-miterlimit="10"/>
<path d="M187.485 244.317C284.317 155.119 311.242 26.823 247.623 -42.2406C184.004 -111.304 53.9335 -94.9823 -42.8986 -5.78459C-139.731 83.4131 -166.655 211.709 -103.037 280.773C-39.4183 349.837 90.6526 333.515 187.485 244.317Z" stroke="#667999" stroke-miterlimit="10"/>
<path d="M156.321 220.616C241.401 147.358 265.962 36.3934 211.18 -27.2296C156.398 -90.8526 43.0164 -83.0417 -42.064 -9.78346C-127.144 63.4748 -151.706 174.439 -96.9234 238.062C-42.141 301.685 71.2402 293.874 156.321 220.616Z" stroke="#667999" stroke-miterlimit="10"/>
<path d="M125.378 197.839C198.908 140.101 221.164 45.7253 175.087 -12.9543C129.01 -71.6339 32.0492 -72.3968 -41.4816 -14.6583C-115.012 43.0802 -137.268 137.456 -91.1915 196.135C-45.1146 254.815 51.8467 255.578 125.378 197.839Z" stroke="#667999" stroke-miterlimit="10"/>
<path d="M94.7904 176.471C157.085 133.545 177.128 54.5476 139.557 0.0252597C101.987 -54.4971 21.0306 -63.8979 -41.2638 -20.972C-103.558 21.9539 -123.601 100.951 -86.0306 155.474C-48.4603 209.996 32.496 219.397 94.7904 176.471Z" stroke="#667999" stroke-miterlimit="10"/>
<path d="M11.59 171.48C70.9938 171.48 119.15 123.324 119.15 63.92C119.15 4.51624 70.9938 -43.64 11.59 -43.64C-47.8137 -43.64 -95.97 4.51624 -95.97 63.92C-95.97 123.324 -47.8137 171.48 11.59 171.48Z" stroke="#667999" stroke-miterlimit="10"/>
</g>
</svg>
